^C:\USERS\SLEK\SOURCE\REPOS\SKILLBOX\15\PROJECT1\DEBUG\CLASS.OBJ
C:\USERS\SLEK\SOURCE\REPOS\SKILLBOX\15\PROJECT1\DEBUG\PROJECT1.EXE
C:\USERS\SLEK\SOURCE\REPOS\SKILLBOX\15\PROJECT1\DEBUG\PROJECT1.ILK
C:\USERS\SLEK\SOURCE\REPOS\SKILLBOX\15\PROJECT1\DEBUG\PROJECT1.PDB
